Library List, V30
FW;C:\BrAutomation\SafeDESIGNER 5.14.1\SafePROG\PLC\FW_LIB\PLCopen_SF;PLCopen_SF;3
FW;C:\BrAutomation\SafeDESIGNER 5.14.1\SafePROG\PLC\SafePCOSctx_31;SafePCOSctx_31;0
FW;C:\BrAutomation\SafeDESIGNER 5.14.1\SafePROG\PLC;IEC;3
