>> Start of Module
  0x100C, 0x01, long,     0x0001D4C0 (120000), 
  0x100C, 0x02, byte,     0x05 (5), 
  0x100D, 0x00, long,     0x00002710 (10000), NoCrc
  0x1018, 0x07, long,     0x619B627D (1637573245), NoCrc
  0x1200, 0x01, short,    0x0001 (1), NoCrc
  0x1200, 0x02, short,    0x00FF (255), NoCrc
  0x1200, 0x03, byte,     0x02 (2), 
  0x2112, 0x04, long,     0x000007D0 (2000), 
  0x2112, 0x05, long,     0x00009C40 (40000), 
  0x2112, 0x09, long,     0x00000012 (18), NoCrc
  0x2112, 0x08, long,     0x00000012 (18), NoCrc
  0x2000, 0x00, stru_bnc, 0x0026, 
    0x04, 0x00, 0x26, 0x00, 0x64, 0x00, 0xC4, 0x09, 
    0x01, 0x00, 0x00, 0x00, 0x00, 0x40, 0x0D, 0x03, 
    0x00, 0x50, 0xC3, 0x00, 0x00, 0x01, 0x02, 0x00, 
    0x00, 0x00, 0x00, 0x40, 0x0D, 0x03, 0x00, 0x00, 
    0x00, 0x00, 0x00, 0x00, 0x00, 0x00, 
  0x2001, 0x00, stru_bnc, 0x0006, 
    0x00, 0x00, 0x01, 0x00, 0x00, 0x00, 
  0x1400, 0x01, short,    0x0002 (2), 
  0x1400, 0x02, long,     0x00000BA3 (2979), 
  0x1400, 0x03, byte,     0x3F (63), 
  0x1400, 0x04, long,     0x000049D4 (18900), 
  0x1400, 0x05, long,     0x0000B892 (47250), 
  0x1400, 0x06, short,    0x0001 (1), 
  0x1400, 0x07, short,    0x0002 (2), 
  0x1400, 0x08, short,    0x0001 (1), 
  0x1400, 0x09, short,    0x28BD (10429), 
  0x1400, 0x0A, short,    0x0008 (8), 
  0x1400, 0x0B, long,     0x00030732 (198450), 
  0x1400, 0x0C, short,    0x0001 (1), 
  0x1401, 0x01, short,    0x0003 (3), 
  0x1401, 0x02, long,     0x00000BA3 (2979), 
  0x1401, 0x03, byte,     0x3F (63), 
  0x1401, 0x04, long,     0x000049D4 (18900), 
  0x1401, 0x05, long,     0x0000B892 (47250), 
  0x1401, 0x06, short,    0x0001 (1), 
  0x1401, 0x07, short,    0x0002 (2), 
  0x1401, 0x08, short,    0x0001 (1), 
  0x1401, 0x09, short,    0x28BD (10429), 
  0x1401, 0x0A, short,    0x0008 (8), 
  0x1401, 0x0B, long,     0x00030732 (198450), 
  0x1401, 0x0C, short,    0x0002 (2), 
  0x1800, 0x01, long,     0x22000708 (570427144), 
  0x1800, 0x02, long,     0x21020108 (553779464), 
  0x1800, 0x00, byte,     0x02 (2), 
  0x1801, 0x01, long,     0x21020108 (553779464), 
  0x1801, 0x00, byte,     0x01 (1), 
  0x1C00, 0x01, short,    0x0001 (1), 
  0x1C00, 0x02, short,    0x0004 (4), 
  0x1C00, 0x03, byte,     0x3F (63), 
  0x1C01, 0x01, short,    0x0004 (4), 
  0x1C01, 0x02, short,    0x0004 (4), 
  0x1C01, 0x03, byte,     0x3F (63), 
  0xC001, 0x01, long,     0x24000308 (603980552), 
  0xC001, 0x02, long,     0x26801508 (645928200), 
  0xC001, 0x00, byte,     0x02 (2), 
  0x2109, 0x01, byte,     0x01 (1), 
  0x2106, 0x09, long,     0xD7C3037A (-675085446), NoCrc
  0x2106, 0x0A, long,     0x619B627D (1637573245), NoCrc
  0x2106, 0x04, long,     0x00000000 (0), NoCrc
  0x2112, 0x02, stru_bnc, 0x001C, 
    0x0F, 0x03, 0x00, 0x00, 0x0D, 0x03, 0x00, 0x00, 
    0x01, 0x02, 0x00, 0x00, 0x01, 0x02, 0x14, 0x00, 
    0x01, 0x07, 0x00, 0x08, 0x01, 0x09, 0x04, 0x00, 
    0x01, 0x09, 0x04, 0x21, 
  0x2112, 0x03, stru_bnc, 0x0010, 
    0x0B, 0x03, 0x00, 0x00, 0x0F, 0x03, 0x01, 0x00, 
    0x01, 0x02, 0x00, 0x00, 0x02, 0x04, 0x00, 0x00, 
    
  0x1402, 0x01, short,    0x0000 (0), 
  0x1402, 0x02, long,     0x00000001 (1), 
  0x1402, 0x03, byte,     0x01 (1), 
  0x1402, 0x04, long,     0x00000000 (0), 
  0x1402, 0x05, long,     0x00000001 (1), 
  0x1402, 0x06, short,    0x0001 (1), 
  0x1402, 0x07, short,    0x0001 (1), 
  0x1402, 0x08, short,    0x0001 (1), 
  0x1402, 0x09, short,    0x0001 (1), 
  0x1402, 0x0A, short,    0x0000 (0), 
  0x1402, 0x0B, long,     0x00000001 (1), 
  0x1402, 0x0C, short,    0x0001 (1), 
  0x1403, 0x01, short,    0x0000 (0), 
  0x1403, 0x02, long,     0x00000001 (1), 
  0x1403, 0x03, byte,     0x01 (1), 
  0x1403, 0x04, long,     0x00000000 (0), 
  0x1403, 0x05, long,     0x00000001 (1), 
  0x1403, 0x06, short,    0x0001 (1), 
  0x1403, 0x07, short,    0x0001 (1), 
  0x1403, 0x08, short,    0x0001 (1), 
  0x1403, 0x09, short,    0x0001 (1), 
  0x1403, 0x0A, short,    0x0000 (0), 
  0x1403, 0x0B, long,     0x00000001 (1), 
  0x1403, 0x0C, short,    0x0001 (1), 
  0x1404, 0x01, short,    0x0000 (0), 
  0x1404, 0x02, long,     0x00000001 (1), 
  0x1404, 0x03, byte,     0x01 (1), 
  0x1404, 0x04, long,     0x00000000 (0), 
  0x1404, 0x05, long,     0x00000001 (1), 
  0x1404, 0x06, short,    0x0001 (1), 
  0x1404, 0x07, short,    0x0001 (1), 
  0x1404, 0x08, short,    0x0001 (1), 
  0x1404, 0x09, short,    0x0001 (1), 
  0x1404, 0x0A, short,    0x0000 (0), 
  0x1404, 0x0B, long,     0x00000001 (1), 
  0x1404, 0x0C, short,    0x0001 (1), 
  0x1405, 0x01, short,    0x0000 (0), 
  0x1405, 0x02, long,     0x00000001 (1), 
  0x1405, 0x03, byte,     0x01 (1), 
  0x1405, 0x04, long,     0x00000000 (0), 
  0x1405, 0x05, long,     0x00000001 (1), 
  0x1405, 0x06, short,    0x0001 (1), 
  0x1405, 0x07, short,    0x0001 (1), 
  0x1405, 0x08, short,    0x0001 (1), 
  0x1405, 0x09, short,    0x0001 (1), 
  0x1405, 0x0A, short,    0x0000 (0), 
  0x1405, 0x0B, long,     0x00000001 (1), 
  0x1405, 0x0C, short,    0x0001 (1), 
  0x1406, 0x01, short,    0x0000 (0), 
  0x1406, 0x02, long,     0x00000001 (1), 
  0x1406, 0x03, byte,     0x01 (1), 
  0x1406, 0x04, long,     0x00000000 (0), 
  0x1406, 0x05, long,     0x00000001 (1), 
  0x1406, 0x06, short,    0x0001 (1), 
  0x1406, 0x07, short,    0x0001 (1), 
  0x1406, 0x08, short,    0x0001 (1), 
  0x1406, 0x09, short,    0x0001 (1), 
  0x1406, 0x0A, short,    0x0000 (0), 
  0x1406, 0x0B, long,     0x00000001 (1), 
  0x1406, 0x0C, short,    0x0001 (1), 
  0x1407, 0x01, short,    0x0000 (0), 
  0x1407, 0x02, long,     0x00000001 (1), 
  0x1407, 0x03, byte,     0x01 (1), 
  0x1407, 0x04, long,     0x00000000 (0), 
  0x1407, 0x05, long,     0x00000001 (1), 
  0x1407, 0x06, short,    0x0001 (1), 
  0x1407, 0x07, short,    0x0001 (1), 
  0x1407, 0x08, short,    0x0001 (1), 
  0x1407, 0x09, short,    0x0001 (1), 
  0x1407, 0x0A, short,    0x0000 (0), 
  0x1407, 0x0B, long,     0x00000001 (1), 
  0x1407, 0x0C, short,    0x0001 (1), 
  0x1408, 0x01, short,    0x0000 (0), 
  0x1408, 0x02, long,     0x00000001 (1), 
  0x1408, 0x03, byte,     0x01 (1), 
  0x1408, 0x04, long,     0x00000000 (0), 
  0x1408, 0x05, long,     0x00000001 (1), 
  0x1408, 0x06, short,    0x0001 (1), 
  0x1408, 0x07, short,    0x0001 (1), 
  0x1408, 0x08, short,    0x0001 (1), 
  0x1408, 0x09, short,    0x0001 (1), 
  0x1408, 0x0A, short,    0x0000 (0), 
  0x1408, 0x0B, long,     0x00000001 (1), 
  0x1408, 0x0C, short,    0x0001 (1), 
  0x1409, 0x01, short,    0x0000 (0), 
  0x1409, 0x02, long,     0x00000001 (1), 
  0x1409, 0x03, byte,     0x01 (1), 
  0x1409, 0x04, long,     0x00000000 (0), 
  0x1409, 0x05, long,     0x00000001 (1), 
  0x1409, 0x06, short,    0x0001 (1), 
  0x1409, 0x07, short,    0x0001 (1), 
  0x1409, 0x08, short,    0x0001 (1), 
  0x1409, 0x09, short,    0x0001 (1), 
  0x1409, 0x0A, short,    0x0000 (0), 
  0x1409, 0x0B, long,     0x00000001 (1), 
  0x1409, 0x0C, short,    0x0001 (1), 
  0x1800, 0x03, long,     0x00000000 (0), 
  0x1800, 0x04, long,     0x00000000 (0), 
  0x1800, 0x05, long,     0x00000000 (0), 
  0x1800, 0x06, long,     0x00000000 (0), 
  0x1800, 0x07, long,     0x00000000 (0), 
  0x1800, 0x08, long,     0x00000000 (0), 
  0x1800, 0x09, long,     0x00000000 (0), 
  0x1800, 0x0A, long,     0x00000000 (0), 
  0x1800, 0x0B, long,     0x00000000 (0), 
  0x1800, 0x0C, long,     0x00000000 (0), 
  0x1800, 0x0D, long,     0x00000000 (0), 
  0x1800, 0x0E, long,     0x00000000 (0), 
  0x1800, 0x0F, long,     0x00000000 (0), 
  0x1800, 0x10, long,     0x00000000 (0), 
  0x1800, 0x11, long,     0x00000000 (0), 
  0x1800, 0x12, long,     0x00000000 (0), 
  0x1801, 0x02, long,     0x00000000 (0), 
  0x1801, 0x03, long,     0x00000000 (0), 
  0x1801, 0x04, long,     0x00000000 (0), 
  0x1801, 0x05, long,     0x00000000 (0), 
  0x1801, 0x06, long,     0x00000000 (0), 
  0x1801, 0x07, long,     0x00000000 (0), 
  0x1801, 0x08, long,     0x00000000 (0), 
  0x1801, 0x09, long,     0x00000000 (0), 
  0x1801, 0x0A, long,     0x00000000 (0), 
  0x1801, 0x0B, long,     0x00000000 (0), 
  0x1801, 0x0C, long,     0x00000000 (0), 
  0x1801, 0x0D, long,     0x00000000 (0), 
  0x1801, 0x0E, long,     0x00000000 (0), 
  0x1801, 0x0F, long,     0x00000000 (0), 
  0x1801, 0x10, long,     0x00000000 (0), 
  0x1801, 0x11, long,     0x00000000 (0), 
  0x1801, 0x12, long,     0x00000000 (0), 
  0x1802, 0x00, byte,     0x00 (0), 
  0x1802, 0x01, long,     0x00000000 (0), 
  0x1802, 0x02, long,     0x00000000 (0), 
  0x1802, 0x03, long,     0x00000000 (0), 
  0x1802, 0x04, long,     0x00000000 (0), 
  0x1802, 0x05, long,     0x00000000 (0), 
  0x1802, 0x06, long,     0x00000000 (0), 
  0x1802, 0x07, long,     0x00000000 (0), 
  0x1802, 0x08, long,     0x00000000 (0), 
  0x1802, 0x09, long,     0x00000000 (0), 
  0x1802, 0x0A, long,     0x00000000 (0), 
  0x1802, 0x0B, long,     0x00000000 (0), 
  0x1802, 0x0C, long,     0x00000000 (0), 
  0x1802, 0x0D, long,     0x00000000 (0), 
  0x1802, 0x0E, long,     0x00000000 (0), 
  0x1802, 0x0F, long,     0x00000000 (0), 
  0x1802, 0x10, long,     0x00000000 (0), 
  0x1802, 0x11, long,     0x00000000 (0), 
  0x1802, 0x12, long,     0x00000000 (0), 
  0x1803, 0x00, byte,     0x00 (0), 
  0x1803, 0x01, long,     0x00000000 (0), 
  0x1803, 0x02, long,     0x00000000 (0), 
  0x1803, 0x03, long,     0x00000000 (0), 
  0x1803, 0x04, long,     0x00000000 (0), 
  0x1803, 0x05, long,     0x00000000 (0), 
  0x1803, 0x06, long,     0x00000000 (0), 
  0x1803, 0x07, long,     0x00000000 (0), 
  0x1803, 0x08, long,     0x00000000 (0), 
  0x1803, 0x09, long,     0x00000000 (0), 
  0x1803, 0x0A, long,     0x00000000 (0), 
  0x1803, 0x0B, long,     0x00000000 (0), 
  0x1803, 0x0C, long,     0x00000000 (0), 
  0x1803, 0x0D, long,     0x00000000 (0), 
  0x1803, 0x0E, long,     0x00000000 (0), 
  0x1803, 0x0F, long,     0x00000000 (0), 
  0x1803, 0x10, long,     0x00000000 (0), 
  0x1803, 0x11, long,     0x00000000 (0), 
  0x1803, 0x12, long,     0x00000000 (0), 
  0x1804, 0x00, byte,     0x00 (0), 
  0x1804, 0x01, long,     0x00000000 (0), 
  0x1804, 0x02, long,     0x00000000 (0), 
  0x1804, 0x03, long,     0x00000000 (0), 
  0x1804, 0x04, long,     0x00000000 (0), 
  0x1804, 0x05, long,     0x00000000 (0), 
  0x1804, 0x06, long,     0x00000000 (0), 
  0x1804, 0x07, long,     0x00000000 (0), 
  0x1804, 0x08, long,     0x00000000 (0), 
  0x1804, 0x09, long,     0x00000000 (0), 
  0x1804, 0x0A, long,     0x00000000 (0), 
  0x1804, 0x0B, long,     0x00000000 (0), 
  0x1804, 0x0C, long,     0x00000000 (0), 
  0x1804, 0x0D, long,     0x00000000 (0), 
  0x1804, 0x0E, long,     0x00000000 (0), 
  0x1804, 0x0F, long,     0x00000000 (0), 
  0x1804, 0x10, long,     0x00000000 (0), 
  0x1804, 0x11, long,     0x00000000 (0), 
  0x1804, 0x12, long,     0x00000000 (0), 
  0x1805, 0x00, byte,     0x00 (0), 
  0x1805, 0x01, long,     0x00000000 (0), 
  0x1805, 0x02, long,     0x00000000 (0), 
  0x1805, 0x03, long,     0x00000000 (0), 
  0x1805, 0x04, long,     0x00000000 (0), 
  0x1805, 0x05, long,     0x00000000 (0), 
  0x1805, 0x06, long,     0x00000000 (0), 
  0x1805, 0x07, long,     0x00000000 (0), 
  0x1805, 0x08, long,     0x00000000 (0), 
  0x1805, 0x09, long,     0x00000000 (0), 
  0x1805, 0x0A, long,     0x00000000 (0), 
  0x1805, 0x0B, long,     0x00000000 (0), 
  0x1805, 0x0C, long,     0x00000000 (0), 
  0x1805, 0x0D, long,     0x00000000 (0), 
  0x1805, 0x0E, long,     0x00000000 (0), 
  0x1805, 0x0F, long,     0x00000000 (0), 
  0x1805, 0x10, long,     0x00000000 (0), 
  0x1805, 0x11, long,     0x00000000 (0), 
  0x1805, 0x12, long,     0x00000000 (0), 
  0x1806, 0x00, byte,     0x00 (0), 
  0x1806, 0x01, long,     0x00000000 (0), 
  0x1806, 0x02, long,     0x00000000 (0), 
  0x1806, 0x03, long,     0x00000000 (0), 
  0x1806, 0x04, long,     0x00000000 (0), 
  0x1806, 0x05, long,     0x00000000 (0), 
  0x1806, 0x06, long,     0x00000000 (0), 
  0x1806, 0x07, long,     0x00000000 (0), 
  0x1806, 0x08, long,     0x00000000 (0), 
  0x1806, 0x09, long,     0x00000000 (0), 
  0x1806, 0x0A, long,     0x00000000 (0), 
  0x1806, 0x0B, long,     0x00000000 (0), 
  0x1806, 0x0C, long,     0x00000000 (0), 
  0x1806, 0x0D, long,     0x00000000 (0), 
  0x1806, 0x0E, long,     0x00000000 (0), 
  0x1806, 0x0F, long,     0x00000000 (0), 
  0x1806, 0x10, long,     0x00000000 (0), 
  0x1806, 0x11, long,     0x00000000 (0), 
  0x1806, 0x12, long,     0x00000000 (0), 
  0x1807, 0x00, byte,     0x00 (0), 
  0x1807, 0x01, long,     0x00000000 (0), 
  0x1807, 0x02, long,     0x00000000 (0), 
  0x1807, 0x03, long,     0x00000000 (0), 
  0x1807, 0x04, long,     0x00000000 (0), 
  0x1807, 0x05, long,     0x00000000 (0), 
  0x1807, 0x06, long,     0x00000000 (0), 
  0x1807, 0x07, long,     0x00000000 (0), 
  0x1807, 0x08, long,     0x00000000 (0), 
  0x1807, 0x09, long,     0x00000000 (0), 
  0x1807, 0x0A, long,     0x00000000 (0), 
  0x1807, 0x0B, long,     0x00000000 (0), 
  0x1807, 0x0C, long,     0x00000000 (0), 
  0x1807, 0x0D, long,     0x00000000 (0), 
  0x1807, 0x0E, long,     0x00000000 (0), 
  0x1807, 0x0F, long,     0x00000000 (0), 
  0x1807, 0x10, long,     0x00000000 (0), 
  0x1807, 0x11, long,     0x00000000 (0), 
  0x1807, 0x12, long,     0x00000000 (0), 
  0x1808, 0x00, byte,     0x00 (0), 
  0x1808, 0x01, long,     0x00000000 (0), 
  0x1808, 0x02, long,     0x00000000 (0), 
  0x1808, 0x03, long,     0x00000000 (0), 
  0x1808, 0x04, long,     0x00000000 (0), 
  0x1808, 0x05, long,     0x00000000 (0), 
  0x1808, 0x06, long,     0x00000000 (0), 
  0x1808, 0x07, long,     0x00000000 (0), 
  0x1808, 0x08, long,     0x00000000 (0), 
  0x1808, 0x09, long,     0x00000000 (0), 
  0x1808, 0x0A, long,     0x00000000 (0), 
  0x1808, 0x0B, long,     0x00000000 (0), 
  0x1808, 0x0C, long,     0x00000000 (0), 
  0x1808, 0x0D, long,     0x00000000 (0), 
  0x1808, 0x0E, long,     0x00000000 (0), 
  0x1808, 0x0F, long,     0x00000000 (0), 
  0x1808, 0x10, long,     0x00000000 (0), 
  0x1808, 0x11, long,     0x00000000 (0), 
  0x1808, 0x12, long,     0x00000000 (0), 
  0x1809, 0x00, byte,     0x00 (0), 
  0x1809, 0x01, long,     0x00000000 (0), 
  0x1809, 0x02, long,     0x00000000 (0), 
  0x1809, 0x03, long,     0x00000000 (0), 
  0x1809, 0x04, long,     0x00000000 (0), 
  0x1809, 0x05, long,     0x00000000 (0), 
  0x1809, 0x06, long,     0x00000000 (0), 
  0x1809, 0x07, long,     0x00000000 (0), 
  0x1809, 0x08, long,     0x00000000 (0), 
  0x1809, 0x09, long,     0x00000000 (0), 
  0x1809, 0x0A, long,     0x00000000 (0), 
  0x1809, 0x0B, long,     0x00000000 (0), 
  0x1809, 0x0C, long,     0x00000000 (0), 
  0x1809, 0x0D, long,     0x00000000 (0), 
  0x1809, 0x0E, long,     0x00000000 (0), 
  0x1809, 0x0F, long,     0x00000000 (0), 
  0x1809, 0x10, long,     0x00000000 (0), 
  0x1809, 0x11, long,     0x00000000 (0), 
  0x1809, 0x12, long,     0x00000000 (0), 
  0x1C02, 0x01, short,    0x0000 (0), 
  0x1C02, 0x02, short,    0x0001 (1), 
  0x1C02, 0x03, byte,     0x00 (0), 
  0x1C03, 0x01, short,    0x0000 (0), 
  0x1C03, 0x02, short,    0x0001 (1), 
  0x1C03, 0x03, byte,     0x00 (0), 
  0x1C04, 0x01, short,    0x0000 (0), 
  0x1C04, 0x02, short,    0x0001 (1), 
  0x1C04, 0x03, byte,     0x00 (0), 
  0x1C05, 0x01, short,    0x0000 (0), 
  0x1C05, 0x02, short,    0x0001 (1), 
  0x1C05, 0x03, byte,     0x00 (0), 
  0x1C06, 0x01, short,    0x0000 (0), 
  0x1C06, 0x02, short,    0x0001 (1), 
  0x1C06, 0x03, byte,     0x00 (0), 
  0x1C07, 0x01, short,    0x0000 (0), 
  0x1C07, 0x02, short,    0x0001 (1), 
  0x1C07, 0x03, byte,     0x00 (0), 
  0x1C08, 0x01, short,    0x0000 (0), 
  0x1C08, 0x02, short,    0x0001 (1), 
  0x1C08, 0x03, byte,     0x00 (0), 
  0x1C09, 0x01, short,    0x0000 (0), 
  0x1C09, 0x02, short,    0x0001 (1), 
  0x1C09, 0x03, byte,     0x00 (0), 
  0x2101, 0x01, long,     0x00000000 (0), 
  0x2101, 0x02, long,     0x00000000 (0), 
  0x2101, 0x03, long,     0x00000000 (0), 
  0x2101, 0x04, long,     0x00000000 (0), 
  0x2101, 0x05, long,     0x00000000 (0), 
  0x2101, 0x06, long,     0x00000000 (0), 
  0x2101, 0x07, long,     0x00000000 (0), 
  0x2101, 0x08, long,     0x00000000 (0), 
  0x2101, 0x09, long,     0x00000000 (0), 
  0x2101, 0x0A, long,     0x00000000 (0), 
  0xC000, 0x00, byte,     0x00 (0), 
  0xC000, 0x01, long,     0x00000000 (0), 
  0xC000, 0x02, long,     0x00000000 (0), 
  0xC000, 0x03, long,     0x00000000 (0), 
  0xC000, 0x04, long,     0x00000000 (0), 
  0xC000, 0x05, long,     0x00000000 (0), 
  0xC000, 0x06, long,     0x00000000 (0), 
  0xC000, 0x07, long,     0x00000000 (0), 
  0xC000, 0x08, long,     0x00000000 (0), 
  0xC000, 0x09, long,     0x00000000 (0), 
  0xC000, 0x0A, long,     0x00000000 (0), 
  0xC000, 0x0B, long,     0x00000000 (0), 
  0xC000, 0x0C, long,     0x00000000 (0), 
  0xC000, 0x0D, long,     0x00000000 (0), 
  0xC000, 0x0E, long,     0x00000000 (0), 
  0xC000, 0x0F, long,     0x00000000 (0), 
  0xC000, 0x10, long,     0x00000000 (0), 
  0xC000, 0x11, long,     0x00000000 (0), 
  0xC000, 0x12, long,     0x00000000 (0), 
  0xC001, 0x03, long,     0x00000000 (0), 
  0xC001, 0x04, long,     0x00000000 (0), 
  0xC001, 0x05, long,     0x00000000 (0), 
  0xC001, 0x06, long,     0x00000000 (0), 
  0xC001, 0x07, long,     0x00000000 (0), 
  0xC001, 0x08, long,     0x00000000 (0), 
  0xC001, 0x09, long,     0x00000000 (0), 
  0xC001, 0x0A, long,     0x00000000 (0), 
  0xC001, 0x0B, long,     0x00000000 (0), 
  0xC001, 0x0C, long,     0x00000000 (0), 
  0xC001, 0x0D, long,     0x00000000 (0), 
  0xC001, 0x0E, long,     0x00000000 (0), 
  0xC001, 0x0F, long,     0x00000000 (0), 
  0xC001, 0x10, long,     0x00000000 (0), 
  0xC001, 0x11, long,     0x00000000 (0), 
  0xC001, 0x12, long,     0x00000000 (0), 
  0xC002, 0x00, byte,     0x00 (0), 
  0xC002, 0x01, long,     0x00000000 (0), 
  0xC002, 0x02, long,     0x00000000 (0), 
  0xC002, 0x03, long,     0x00000000 (0), 
  0xC002, 0x04, long,     0x00000000 (0), 
  0xC002, 0x05, long,     0x00000000 (0), 
  0xC002, 0x06, long,     0x00000000 (0), 
  0xC002, 0x07, long,     0x00000000 (0), 
  0xC002, 0x08, long,     0x00000000 (0), 
  0xC002, 0x09, long,     0x00000000 (0), 
  0xC002, 0x0A, long,     0x00000000 (0), 
  0xC002, 0x0B, long,     0x00000000 (0), 
  0xC002, 0x0C, long,     0x00000000 (0), 
  0xC002, 0x0D, long,     0x00000000 (0), 
  0xC002, 0x0E, long,     0x00000000 (0), 
  0xC002, 0x0F, long,     0x00000000 (0), 
  0xC002, 0x10, long,     0x00000000 (0), 
  0xC002, 0x11, long,     0x00000000 (0), 
  0xC002, 0x12, long,     0x00000000 (0), 
  0xC003, 0x00, byte,     0x00 (0), 
  0xC003, 0x01, long,     0x00000000 (0), 
  0xC003, 0x02, long,     0x00000000 (0), 
  0xC003, 0x03, long,     0x00000000 (0), 
  0xC003, 0x04, long,     0x00000000 (0), 
  0xC003, 0x05, long,     0x00000000 (0), 
  0xC003, 0x06, long,     0x00000000 (0), 
  0xC003, 0x07, long,     0x00000000 (0), 
  0xC003, 0x08, long,     0x00000000 (0), 
  0xC003, 0x09, long,     0x00000000 (0), 
  0xC003, 0x0A, long,     0x00000000 (0), 
  0xC003, 0x0B, long,     0x00000000 (0), 
  0xC003, 0x0C, long,     0x00000000 (0), 
  0xC003, 0x0D, long,     0x00000000 (0), 
  0xC003, 0x0E, long,     0x00000000 (0), 
  0xC003, 0x0F, long,     0x00000000 (0), 
  0xC003, 0x10, long,     0x00000000 (0), 
  0xC003, 0x11, long,     0x00000000 (0), 
  0xC003, 0x12, long,     0x00000000 (0), 
  0xC004, 0x00, byte,     0x00 (0), 
  0xC004, 0x01, long,     0x00000000 (0), 
  0xC004, 0x02, long,     0x00000000 (0), 
  0xC004, 0x03, long,     0x00000000 (0), 
  0xC004, 0x04, long,     0x00000000 (0), 
  0xC004, 0x05, long,     0x00000000 (0), 
  0xC004, 0x06, long,     0x00000000 (0), 
  0xC004, 0x07, long,     0x00000000 (0), 
  0xC004, 0x08, long,     0x00000000 (0), 
  0xC004, 0x09, long,     0x00000000 (0), 
  0xC004, 0x0A, long,     0x00000000 (0), 
  0xC004, 0x0B, long,     0x00000000 (0), 
  0xC004, 0x0C, long,     0x00000000 (0), 
  0xC004, 0x0D, long,     0x00000000 (0), 
  0xC004, 0x0E, long,     0x00000000 (0), 
  0xC004, 0x0F, long,     0x00000000 (0), 
  0xC004, 0x10, long,     0x00000000 (0), 
  0xC004, 0x11, long,     0x00000000 (0), 
  0xC004, 0x12, long,     0x00000000 (0), 
  0xC005, 0x00, byte,     0x00 (0), 
  0xC005, 0x01, long,     0x00000000 (0), 
  0xC005, 0x02, long,     0x00000000 (0), 
  0xC005, 0x03, long,     0x00000000 (0), 
  0xC005, 0x04, long,     0x00000000 (0), 
  0xC005, 0x05, long,     0x00000000 (0), 
  0xC005, 0x06, long,     0x00000000 (0), 
  0xC005, 0x07, long,     0x00000000 (0), 
  0xC005, 0x08, long,     0x00000000 (0), 
  0xC005, 0x09, long,     0x00000000 (0), 
  0xC005, 0x0A, long,     0x00000000 (0), 
  0xC005, 0x0B, long,     0x00000000 (0), 
  0xC005, 0x0C, long,     0x00000000 (0), 
  0xC005, 0x0D, long,     0x00000000 (0), 
  0xC005, 0x0E, long,     0x00000000 (0), 
  0xC005, 0x0F, long,     0x00000000 (0), 
  0xC005, 0x10, long,     0x00000000 (0), 
  0xC005, 0x11, long,     0x00000000 (0), 
  0xC005, 0x12, long,     0x00000000 (0), 
  0xC006, 0x00, byte,     0x00 (0), 
  0xC006, 0x01, long,     0x00000000 (0), 
  0xC006, 0x02, long,     0x00000000 (0), 
  0xC006, 0x03, long,     0x00000000 (0), 
  0xC006, 0x04, long,     0x00000000 (0), 
  0xC006, 0x05, long,     0x00000000 (0), 
  0xC006, 0x06, long,     0x00000000 (0), 
  0xC006, 0x07, long,     0x00000000 (0), 
  0xC006, 0x08, long,     0x00000000 (0), 
  0xC006, 0x09, long,     0x00000000 (0), 
  0xC006, 0x0A, long,     0x00000000 (0), 
  0xC006, 0x0B, long,     0x00000000 (0), 
  0xC006, 0x0C, long,     0x00000000 (0), 
  0xC006, 0x0D, long,     0x00000000 (0), 
  0xC006, 0x0E, long,     0x00000000 (0), 
  0xC006, 0x0F, long,     0x00000000 (0), 
  0xC006, 0x10, long,     0x00000000 (0), 
  0xC006, 0x11, long,     0x00000000 (0), 
  0xC006, 0x12, long,     0x00000000 (0), 
  0xC007, 0x00, byte,     0x00 (0), 
  0xC007, 0x01, long,     0x00000000 (0), 
  0xC007, 0x02, long,     0x00000000 (0), 
  0xC007, 0x03, long,     0x00000000 (0), 
  0xC007, 0x04, long,     0x00000000 (0), 
  0xC007, 0x05, long,     0x00000000 (0), 
  0xC007, 0x06, long,     0x00000000 (0), 
  0xC007, 0x07, long,     0x00000000 (0), 
  0xC007, 0x08, long,     0x00000000 (0), 
  0xC007, 0x09, long,     0x00000000 (0), 
  0xC007, 0x0A, long,     0x00000000 (0), 
  0xC007, 0x0B, long,     0x00000000 (0), 
  0xC007, 0x0C, long,     0x00000000 (0), 
  0xC007, 0x0D, long,     0x00000000 (0), 
  0xC007, 0x0E, long,     0x00000000 (0), 
  0xC007, 0x0F, long,     0x00000000 (0), 
  0xC007, 0x10, long,     0x00000000 (0), 
  0xC007, 0x11, long,     0x00000000 (0), 
  0xC007, 0x12, long,     0x00000000 (0), 
  0xC008, 0x00, byte,     0x00 (0), 
  0xC008, 0x01, long,     0x00000000 (0), 
  0xC008, 0x02, long,     0x00000000 (0), 
  0xC008, 0x03, long,     0x00000000 (0), 
  0xC008, 0x04, long,     0x00000000 (0), 
  0xC008, 0x05, long,     0x00000000 (0), 
  0xC008, 0x06, long,     0x00000000 (0), 
  0xC008, 0x07, long,     0x00000000 (0), 
  0xC008, 0x08, long,     0x00000000 (0), 
  0xC008, 0x09, long,     0x00000000 (0), 
  0xC008, 0x0A, long,     0x00000000 (0), 
  0xC008, 0x0B, long,     0x00000000 (0), 
  0xC008, 0x0C, long,     0x00000000 (0), 
  0xC008, 0x0D, long,     0x00000000 (0), 
  0xC008, 0x0E, long,     0x00000000 (0), 
  0xC008, 0x0F, long,     0x00000000 (0), 
  0xC008, 0x10, long,     0x00000000 (0), 
  0xC008, 0x11, long,     0x00000000 (0), 
  0xC008, 0x12, long,     0x00000000 (0), 
  0xC009, 0x00, byte,     0x00 (0), 
  0xC009, 0x01, long,     0x00000000 (0), 
  0xC009, 0x02, long,     0x00000000 (0), 
  0xC009, 0x03, long,     0x00000000 (0), 
  0xC009, 0x04, long,     0x00000000 (0), 
  0xC009, 0x05, long,     0x00000000 (0), 
  0xC009, 0x06, long,     0x00000000 (0), 
  0xC009, 0x07, long,     0x00000000 (0), 
  0xC009, 0x08, long,     0x00000000 (0), 
  0xC009, 0x09, long,     0x00000000 (0), 
  0xC009, 0x0A, long,     0x00000000 (0), 
  0xC009, 0x0B, long,     0x00000000 (0), 
  0xC009, 0x0C, long,     0x00000000 (0), 
  0xC009, 0x0D, long,     0x00000000 (0), 
  0xC009, 0x0E, long,     0x00000000 (0), 
  0xC009, 0x0F, long,     0x00000000 (0), 
  0xC009, 0x10, long,     0x00000000 (0), 
  0xC009, 0x11, long,     0x00000000 (0), 
  0xC009, 0x12, long,     0x00000000 (0), 
  0x1018, 0x06, stru_bnc, 0x002C, 
    0x7D, 0x62, 0x9B, 0x61, 0x33, 0x67, 0x8B, 0xB8, 
    0x00, 0x00, 0x00, 0x00, 0xB7, 0xA3, 0x88, 0x18, 
    0x00, 0x00, 0x00, 0x00, 0x00, 0x00, 0x00, 0x00, 
    0x00, 0x00, 0x00, 0x00, 0x00, 0x00, 0x00, 0x00, 
    0x00, 0x00, 0x00, 0x00, 0x00, 0x00, 0x00, 0x00, 
    0x00, 0x00, 0x00, 0x00, NoCrc
  >> End of Module